{"url":"\/intranet\/archivos\/","ip":"10.0.110.55","pid":11484,"date":"2019-06-04T15:31:52+00:00","theme_name":"\/var\/www\/intranet\/wp-content\/themes\/content\/functions.php","runtime":{"total":0.77832508087158,"wordpress":0.057407140731812,"theme":0.040428876876831,"plugins":0.45908784866333,"profile":0.21687436103821,"breakdown":{"p3-profiler":0.008892297744751,"buddydrive":0.043648958206177,"buddypress":0.22842717170715,"ldap-login-for-intranet-sites":0.0044791698455811,"onesignal-free-web-push-notifications":0.0043900012969971,"sp-client-document-manager-premium":0.033965349197388,"sp-client-document-manager":0.10578584671021,"user-role-editor":0.017272472381592,"white-label-cms":0.012226581573486}},"memory":71041024,"stacksize":13464,"queries":80}
{"url":"\/intranet\/wp-admin\/admin-ajax.php","ip":"10.0.110.55","pid":11324,"date":"2019-06-04T15:31:55+00:00","theme_name":"\/var\/www\/intranet\/wp-content\/themes\/content\/functions.php","runtime":{"total":4.2082090377808,"wordpress":0.33871388435364,"theme":0.11376714706421,"plugins":3.1148340702057,"profile":0.58168864250183,"breakdown":{"p3-profiler":0.062398195266724,"buddydrive":0.32216167449951,"buddypress":1.4147038459778,"ldap-login-for-intranet-sites":0.003638744354248,"onesignal-free-web-push-notifications":0.058691740036011,"sp-client-document-manager-premium":0.84754204750061,"sp-client-document-manager":0.22028136253357,"user-role-editor":0.12308526039124,"white-label-cms":0.062331199645996}},"memory":65536000,"stacksize":10920,"queries":47}
{"url":"\/intranet\/wp-admin\/admin-ajax.php","ip":"10.0.110.55","pid":11303,"date":"2019-06-04T15:32:01+00:00","theme_name":"\/var\/www\/intranet\/wp-content\/themes\/content\/functions.php","runtime":{"total":4.2453908920288,"wordpress":0.28610324859619,"theme":0.13960242271423,"plugins":3.1708636283875,"profile":0.64480519294739,"breakdown":{"p3-profiler":0.062674045562744,"buddydrive":0.31651043891907,"buddypress":1.5266051292419,"ldap-login-for-intranet-sites":0.0036969184875488,"onesignal-free-web-push-notifications":0.0034356117248535,"sp-client-document-manager-premium":0.92527151107788,"sp-client-document-manager":0.24303460121155,"user-role-editor":0.067431211471558,"white-label-cms":0.022204160690308}},"memory":65798144,"stacksize":10934,"queries":51}
{"url":"\/intranet\/wp-admin\/admin-ajax.php","ip":"10.0.110.55","pid":11324,"date":"2019-06-04T15:32:07+00:00","theme_name":"\/var\/www\/intranet\/wp-content\/themes\/content\/functions.php","runtime":{"total":0.66653680801392,"wordpress":0.080808639526367,"theme":0.015948534011841,"plugins":0.39882040023804,"profile":0.16810035705566,"breakdown":{"p3-profiler":0.0071423053741455,"buddydrive":0.046445846557617,"buddypress":0.23628258705139,"ldap-login-for-intranet-sites":0.0054023265838623,"onesignal-free-web-push-notifications":0.0049843788146973,"sp-client-document-manager-premium":0.021836519241333,"sp-client-document-manager":0.039911270141602,"user-role-editor":0.012260437011719,"white-label-cms":0.02455472946167}},"memory":65798144,"stacksize":10915,"queries":47}
